<?xml version="1.0" encoding="utf-8"?>
<!-- Generated by IcoMoon.io -->
<!DOCTYPE svg PUBLIC "-//W3C//DTD SVG 1.1//EN" "http://www.w3.org/Graphics/SVG/1.1/DTD/svg11.dtd">
<svg version="1.1" xmlns="http://www.w3.org/2000/svg" xmlns:xlink="http://www.w3.org/1999/xlink" width="24" height="28" viewBox="0 0 24 28">
<path d="M14.484 9.063q0 1.031-0.727 1.758t-1.758 0.727-1.758-0.727-0.727-1.758 0.727-1.758 1.758-0.727 1.758 0.727 0.727 1.758zM17.828 14.734q-0.156-0.313-0.438-0.5t-0.742-0.148-0.945 0.43q-0.156 0.125-0.453 0.313t-1.266 0.5-1.984 0.313-1.937-0.281-1.344-0.562l-0.422-0.281q-0.484-0.391-0.945-0.43t-0.742 0.148-0.438 0.5q-0.344 0.703-0.031 1.164t1.359 1.148q1.297 0.828 3.531 1.047l-0.797 0.812q-2.219 2.219-2.984 2.969-0.344 0.344-0.344 0.82t0.344 0.82l0.141 0.141q0.344 0.344 0.82 0.344t0.82-0.344l2.984-2.984q1.781 1.797 2.984 2.984 0.344 0.344 0.82 0.344t0.82-0.344l0.141-0.141q0.344-0.344 0.344-0.82t-0.344-0.82l-2.984-2.969-0.812-0.812q2.203-0.219 3.516-1.047 1.047-0.688 1.359-1.148t-0.031-1.164zM17.063 9.063q0-2.094-1.484-3.578t-3.578-1.484-3.578 1.484-1.484 3.578 1.484 3.578 3.578 1.484 3.578-1.484 1.484-3.578zM24 6.5v15q0 1.859-1.32 3.18t-3.18 1.32h-15q-1.859 0-3.18-1.32t-1.32-3.18v-15q0-1.859 1.32-3.18t3.18-1.32h15q1.859 0 3.18 1.32t1.32 3.18z"></path>
</svg>
