<svg version="1.1" xmlns="http://www.w3.org/2000/svg" viewBox="0 0 32 25.3" class="icon">
<path class="icon__primary" d="M28.6,25.3H3.4c-1.9,0-3.4-1.5-3.4-3.4V3.4C0,1.5,1.5,0,3.4,0h25.3C30.5,0,32,1.5,32,3.4v18.5
	C32,23.8,30.5,25.3,28.6,25.3z M28.6,21.9V10.1H3.4v11.8H28.6z M3.4,3.4v5.1h25.3V3.4H3.4z M11.8,5.1h1.7v1.7h-1.7V5.1z M8.4,5.1
	h1.7v1.7H8.4V5.1z M5.1,5.1h1.7v1.7H5.1V5.1z"/>
</svg>