<svg version="1.1" xmlns="http://www.w3.org/2000/svg" viewBox="0 0 77 154.1" class="icon">
	<path class="icon__primary" d="M64.2,154.1H14c-7.4,0-14-6.4-14-13.7V12.9c0-7,6.1-12.6,14-12.6c0,0,12.5-0.1,25-0.2C57.3,0,62.6,0,64.2,0.3
		l0,0C71.6,0.4,76.9,5.6,77,12.9v127.5c0.1,3.7-1.4,7.4-3.9,10C70.7,152.8,67.5,154.1,64.2,154.1z M51.1,2.1
		C40.5,2.1,25.4,2.2,14,2.3c-5.9,0-12,4-12,10.6v127.5c0,6.2,5.6,11.7,12,11.7h50.2c2.8,0,5.5-1.1,7.5-3.1c2.2-2.2,3.4-5.3,3.3-8.6
		V12.9C74.9,6.8,70.4,2.4,64.2,2.3h-0.6V2.2C62.1,2.1,57.4,2.1,51.1,2.1z M39,145.1c-4.5,0-8-3.5-8-8s3.5-8,8-8s8,3.5,8,8
		S43.5,145.1,39,145.1z M39,131.1c-3.4,0-6,2.6-6,6s2.6,6,6,6s6-2.6,6-6S42.4,131.1,39,131.1z M69,121.1H8v-100h61V121.1z M10,119.1
		h57v-96H10V119.1z"/>
</svg>