<svg version="1.1" xmlns="http://www.w3.org/2000/svg" viewBox="0 0 32 20" class="icon">
<path class="icon__primary" d="M0,20V0h32v20H0z M8,2.7H6.7v4h-4V8h4H8V2.7z M29.3,12h-4H24v5.3h1.3v-4h4V12z"/>
</svg>
