<svg version="1.1" xmlns="http://www.w3.org/2000/svg" viewBox="0 0 32 32" class="icon">
	<path class="icon__primary" d="M16,32C7.1,32,0,24.9,0,16S7.1,0,16,0s16,7.1,16,16S24.9,32,16,32z M16,3.6C9.1,3.6,3.6,9.1,3.6,16
		S9.1,28.4,16,28.4S28.4,22.9,28.4,16S22.9,3.6,16,3.6z"/>
	<path class="icon__primary" d="M15.3,11.9l0.5-3h3l-0.5,3H15.3z M16.2,23.1H13l1.8-8.9H18L16.2,23.1z"/>
</svg>