<svg version="1.1" xmlns="http://www.w3.org/2000/svg" viewBox="0 0 170 19" class="icon">
	<path class="icon__primary" d="M169.3,9.3V5.2l-1.6,2h-0.1l-1.6-2v4.1h-0.8V4h0.7l1.7,2.2l1.7-2.2h0.7v5.3H169.3z M162.5,9.3h-0.8V4.7h-1.8V4h4.4v0.7
		h-1.8L162.5,9.3L162.5,9.3z M157.4,14.9l-0.9-2.2h-4.6l-0.9,2.2h-3.3l4.7-10.6h3.6l4.7,10.6H157.4z M154.3,7l-1.6,3.9h3.1L154.3,7z
		 M144.5,14.5c-0.1,0-0.4,0.1-0.7,0.2c-0.5,0.1-1,0.2-1.5,0.3c-0.5,0.1-1,0.1-1.5,0.1c-1.1,0-2.1-0.2-3-0.6s-1.6-1-2.2-1.8
		s-0.8-1.8-0.8-3c0-0.8,0.1-1.5,0.4-2.3c0.3-0.7,0.7-1.3,1.3-1.8c0.5-0.4,1-0.7,1.5-0.9c0.5-0.2,1-0.3,1.4-0.4
		c0.5-0.1,1-0.1,1.6-0.1c0.9,0,1.7,0.1,2.3,0.2c0.6,0.1,1.3,0.3,2,0.6v2.5c-0.5-0.3-1-0.5-1.5-0.7s-1.2-0.3-2-0.3
		c-0.9,0-1.7,0.2-2.2,0.5c-0.6,0.3-0.9,0.8-1.2,1.2c-0.2,0.5-0.3,1-0.3,1.4c0,0.5,0.1,1,0.4,1.5c0.2,0.5,0.6,0.8,1.1,1.1
		c0.5,0.3,1.1,0.4,1.8,0.4c0.4,0,0.8-0.1,1.3-0.2v-1.2h-1.4V9.2h4.2v5.1c-0.2,0.1-0.4,0.2-0.6,0.2C144.8,14.4,144.6,14.5,144.5,14.5
		z M129.6,14.3c-0.9,0.5-2,0.7-3.3,0.7s-2.4-0.3-3.3-0.8s-1.6-1.2-2-2s-0.7-1.7-0.7-2.7s0.2-1.8,0.7-2.7c0.4-0.8,1.1-1.5,2-2
		s2-0.8,3.3-0.8c1,0,1.9,0.1,2.6,0.4c0.8,0.3,1.4,0.7,1.9,1.2s0.9,1.1,1.1,1.7c0.3,0.7,0.4,1.4,0.4,2.1c0,1-0.2,1.9-0.7,2.7
		C131.2,13.1,130.5,13.8,129.6,14.3z M128.9,8.5c-0.1-0.3-0.3-0.6-0.5-0.9s-0.5-0.4-0.9-0.6s-0.7-0.2-1.2-0.2c-0.9,0-1.5,0.2-2,0.7
		s-0.7,1.2-0.7,2s0.2,1.5,0.7,2s1.2,0.8,2,0.8c0.6,0,1.1-0.1,1.5-0.3c0.4-0.2,0.7-0.6,0.9-1c0.2-0.4,0.3-0.9,0.3-1.4
		C129.1,9.2,129,8.8,128.9,8.5z M114.8,14.9h-3.2v-4.8l-4.2-5.8h3.3l2.4,3.3l2.4-3.3h3.4l-4.2,5.7v4.9H114.8z M95.8,13
		c-0.3-0.7-0.6-1.2-0.8-1.5c-0.2-0.3-0.5-0.5-0.7-0.6s-0.5-0.1-0.9-0.1H93v4.1h-3.2V4.3h5.5c0.9,0,1.6,0.2,2.2,0.5
		c0.6,0.4,1,0.8,1.2,1.3s0.4,1,0.4,1.5S99,8.6,98.8,9c-0.2,0.4-0.4,0.6-0.7,0.8c-0.2,0.2-0.5,0.3-0.8,0.5c0.3,0.2,0.6,0.4,0.8,0.7
		c0.2,0.3,0.5,0.8,0.9,1.7l1.1,2.3h-3.5L95.8,13z M95.3,6.6c-0.3-0.2-0.8-0.3-1.6-0.3H93v2.5h0.7c0.8,0,1.3-0.1,1.6-0.3
		c0.3-0.2,0.4-0.5,0.4-1C95.8,7.2,95.6,6.8,95.3,6.6z M78.5,4.3h7.9v2.1h-4.7v1.9h4.5v2.1h-4.5v2.3h4.8v2.1h-8L78.5,4.3L78.5,4.3z
		 M69.3,15l-2.8-6.2L63.7,15h-1.9L57.3,4.3h3.3l2.2,5.9l2.5-5.9h2.3l2.5,5.9l2.3-5.9h3.3L71.1,15H69.3z M52.9,14.3
		c-0.9,0.5-2,0.7-3.3,0.7s-2.4-0.3-3.3-0.8s-1.6-1.2-2-2s-0.7-1.7-0.7-2.7s0.2-1.8,0.7-2.7c0.4-0.8,1.1-1.5,2-2s2-0.8,3.3-0.8
		c1,0,1.9,0.1,2.6,0.4c0.8,0.3,1.4,0.7,1.9,1.2s0.9,1.1,1.1,1.7c0.3,0.7,0.4,1.4,0.4,2.1c0,1-0.2,1.9-0.7,2.7
		C54.5,13.1,53.8,13.8,52.9,14.3z M52.1,8.5c-0.1-0.3-0.3-0.6-0.5-0.9S51.1,7.2,50.7,7c-0.3-0.1-0.7-0.2-1.2-0.2
		c-0.9,0-1.5,0.2-2,0.7s-0.7,1.2-0.7,2s0.2,1.5,0.7,2s1.2,0.8,2,0.8c0.6,0,1.1-0.1,1.5-0.3c0.4-0.2,0.7-0.6,0.9-1
		c0.2-0.4,0.3-0.9,0.3-1.4C52.3,9.2,52.3,8.8,52.1,8.5z M40.4,9.8c-0.3,0.3-0.7,0.6-1.2,0.8c-0.5,0.2-1.1,0.3-1.8,0.3h-2.1v4h-3.2
		V4.3h5.3c0.7,0,1.3,0.1,1.8,0.3c0.5,0.2,0.9,0.5,1.2,0.8s0.5,0.7,0.7,1.1s0.2,0.8,0.2,1.2c0,0.4-0.1,0.8-0.2,1.1
		C40.9,9.1,40.7,9.5,40.4,9.8z M37.5,6.6c-0.3-0.2-0.8-0.3-1.6-0.3h-0.7v2.5h0.7c0.5,0,0.9,0,1.2-0.1s0.5-0.2,0.6-0.4
		c0.1-0.2,0.2-0.4,0.2-0.8C38,7.1,37.8,6.8,37.5,6.6z M20.7,19H1.3C0.5,19,0,18.6,0,18c0-0.3,0.1-0.6,0.2-0.9L9.9,0.8
		c0.6-1,1.6-1,2.1,0l9.7,16.4c0.2,0.3,0.3,0.6,0.3,0.9C22,18.6,21.5,19,20.7,19z M10,14.3l1.1-0.6l0,0L10,14.3L10,14.3z M6.9,18
		c-0.1,0.1-0.4,0.1-0.3,0.3c0.4,0,0.7,0.2,1.1,0c0.1-0.1,0.6-0.4,0.7-0.6c0-0.1,0-0.3-0.1-0.4c0-0.7,0.5-1.3,0.8-2
		C9.2,14.8,8.8,14,9.2,14c0.3,0,0.5,0,0.6-0.1l-0.9-1.2c0.3-0.2,0.7-0.4,1.1-0.9l0,0c-0.7,0.9-1.2,0.8-1.8,1.4
		C8.3,14.6,8.1,17.2,6.9,18z M14.3,14.6c-0.8-0.7-1.5-0.9-2.1-1.8c0-0.1,0-0.5-0.1-0.7c-0.2-0.5-0.8-0.8-0.8-1.2
		c-0.1-1.2,0-2.3,0.7-3.3c0.3-0.4,0.1-1.2,0-1.3c-0.3-0.6,0.2-2-0.4-2.8c-0.3-0.4,0-0.9-0.4-1.2c-0.8,0.8-1.5,1.9-1.6,3.1
		C9.5,6.2,9.8,7.1,9.8,7.6C9.7,7.7,9.6,8,9.5,8.3c-0.4,1.2-0.1,2.6,0.6,3.6c0.4,0,0.9-0.2,1.5-0.5c0.2,0.3,0.5,0.5,0.7,0.9
		c0.1,0.3,0.1,0.6,0.1,0.7c0.2,0.3,0.4,0.5,0.6,0.7l-0.6,0.7l0,0c-0.1,0-0.1,0.1-0.1,0.1l0,0c0,0,0.1-0.2,0.2-0.1
		c0.8,0.5,1.9,0.5,2.3,1.4c0,0,0,0.2-0.1,0.2c-0.4,0-0.6,0.1-0.7,0.2c0.4,0.1,0.8,0,1.4,0.1c0.1,0,0.3-0.1,0.3-0.1
		C15.1,15.5,14.7,14.9,14.3,14.6z M10.6,5.4l-0.1,0.1l-0.1,0.2L10.3,6l-0.1,0.2L10,5.6l0.2-0.4l0.1-0.6l0.3-0.7l0.1-0.2L11,3.4
		c0,0.1,0.1,0.3,0.1,0.6c0,1,0.1,1.4,0.1,1.4h-0.4L10.6,5.4z"/>
</svg>
