{
	"project_settings": {
		"name": "Chumly Docs",
		"support_legacy_ie": false
	},
	"components": [
		{
			"heading": "Upload status",
			"file": "upload-status.html"
		},
		{
			"heading": "Global sizing",
			"file": "size.html"
		},
		{
			"heading": "Grid With Item Widths",
			"file": "grid-item-widths.html"
		},
		{
			"heading": "Grid With Parent Widths",
			"file": "grid-parent-widths.html"
		},
		{
			"heading": "User Status",
			"file": "user-status.html"
		},
		{
			"heading": "Headline",
			"file": "headline.html"
		},
		{
			"heading": "Buttons",
			"file": "button.html"
		},
		{
			"heading": "Button Group",
			"file": "button-group.html"
		},
		{
			"heading": "News Feed",
			"file": "news-feed.html"
		},
		{
			"heading": "Box",
			"file": "box.html"
		},
		{
			"heading": "Pill",
			"file": "pill.html"
		},
		{
			"heading": "Pagination",
			"file": "pagination.html"
		},
		{
			"heading": "Breadcrumbs",
			"file": "breadcrumbs.html"
		},
		{
			"heading": "Avatar",
			"file": "avatar.html"
		},
		{
			"heading": "Alert",
			"file": "alert.html"
		},
		{
			"heading": "Headings",
			"file": "headings.html"
		},
		{
			"heading": "Prompt",
			"file": "prompt.html"
		},
		{
			"heading": "Tabs",
			"file": "tabs.html"
		},
		{
			"heading": "WYSIWYG Content",
			"file": "wysiwyg.html"
		}
	],
	"icon_defs": "/images/icons/svg-symbols.svg",
	"testing_count": [0,1,2,3,4,5,6,7,8,9,10,11,12,13,14,15],
	"avatar_url": "https://s.gravatar.com/avatar/?s=300",
	"avatar_recipient_url": "https://s.gravatar.com/avatar/a4a9fce27f61320adbd814dd38e446f0?s=300"
}